<svg width="19" height="20" viewBox="0 0 19 20" fill="none" xmlns="http://www.w3.org/2000/svg">
<path fill-rule="evenodd" clip-rule="evenodd" d="M18.174 6.25909C19.561 3.16909 18.948 1.59609 18.175 0.824092C16.954 -0.396908 14.745 -0.243908 11.937 1.22209C9.03797 0.587092 5.88497 1.38609 3.63497 3.63509C1.38497 5.88509 0.585974 9.03809 1.22097 11.9371C-0.243026 14.7441 -0.396026 16.9561 0.822974 18.1751C1.26097 18.6141 1.95797 19.0051 3.04497 19.0051C3.86997 19.0051 4.92497 18.7731 6.25897 18.1741C7.44397 18.7141 8.71997 18.9941 9.99897 18.9941C12.304 18.9941 14.608 18.1171 16.363 16.3631C19.093 13.6351 19.689 9.58009 18.174 6.25909ZM5.04997 5.05009C6.41497 3.68609 8.20697 3.00409 9.99997 3.00409C11.793 3.00409 13.586 3.68609 14.95 5.05009C15.333 5.43309 15.657 5.85309 15.932 6.29509C14.991 8.05209 13.528 9.95809 11.743 11.7441C9.95797 13.5301 8.05197 14.9921 6.29397 15.9341C5.85297 15.6581 5.43297 15.3351 5.04897 14.9521C2.32097 12.2211 2.32097 7.77909 5.04997 5.05009ZM8.63397 16.8621C10.849 17.2991 13.236 16.6621 14.95 14.9501C16.663 13.2371 17.299 10.8501 16.862 8.63409C15.882 10.1441 14.621 11.6941 13.157 13.1571C11.694 14.6211 10.144 15.8831 8.63397 16.8621Z" fill="#03DAC4"/>
</svg>
